begin
	numeric num;
	Accept num;
	Switch(num)
		case(1):
		`	Display "Sunday";
			break;
		case(2):
			Display "Monday";
			break;
		case(3):
			Display "Tuesday";
			break;
		case(4):
			Display "Wednesday";
			break;
		case(5):
			Display "Thursday";
			break;
		case(6):
			Display "Friday";
			break;
		case(7):
			Display "Saturday";
			break;
		default:
			Display "Wrong Number";
			break;
	end switch
end
	